<?xml version="1.0" encoding="utf-8"?>
<!-- Generator: Adobe Illustrator 16.0.0, SVG Export Plug-In . SVG Version: 6.00 Build 0)  -->
<!DOCTYPE svg PUBLIC "-//W3C//DTD SVG 1.1//EN" "http://www.w3.org/Graphics/SVG/1.1/DTD/svg11.dtd">
<svg version="1.1" id="Layer_1_2_" xmlns="http://www.w3.org/2000/svg" xmlns:xlink="http://www.w3.org/1999/xlink" x="0px" y="0px"
	 width="238.251px" height="57.643px" viewBox="0 0 238.251 57.643" enable-background="new 0 0 238.251 57.643"
	 xml:space="preserve">
<g id="automata">
	<g>
		<path fill="#FFFFFF" d="M55.958,13.013c1.887,0,3.474,0.236,4.763,0.708c1.289,0.473,2.318,1.133,3.089,1.983
			c0.77,0.85,1.32,1.881,1.65,3.092c0.33,1.212,0.495,2.542,0.495,3.989v14.964c-0.88,0.188-2.209,0.417-3.984,0.685
			c-1.776,0.267-3.78,0.4-6.013,0.4c-1.478,0-2.829-0.142-4.055-0.425s-2.271-0.738-3.136-1.368
			c-0.865-0.63-1.541-1.447-2.028-2.455c-0.487-1.007-0.73-2.249-0.73-3.729c0-1.417,0.274-2.612,0.825-3.588
			c0.549-0.975,1.297-1.771,2.24-2.384c0.943-0.614,2.035-1.054,3.277-1.322c1.242-0.267,2.539-0.401,3.891-0.401
			c0.628,0,1.289,0.04,1.98,0.118c0.691,0.079,1.43,0.212,2.216,0.401v-0.944c0-0.661-0.079-1.29-0.236-1.889
			c-0.157-0.597-0.433-1.125-0.825-1.581c-0.394-0.456-0.912-0.81-1.556-1.063c-0.645-0.251-1.455-0.377-2.429-0.377
			c-1.32,0-2.531,0.094-3.631,0.283c-1.101,0.188-1.997,0.409-2.688,0.661l-0.708-4.626c0.723-0.251,1.776-0.503,3.159-0.755
			C52.908,13.139,54.385,13.013,55.958,13.013z M56.429,34.302c1.761,0,3.096-0.095,4.008-0.283v-6.325
			c-0.314-0.095-0.771-0.188-1.368-0.283c-0.598-0.095-1.258-0.142-1.98-0.142c-0.629,0-1.266,0.047-1.91,0.142
			c-0.645,0.095-1.226,0.268-1.745,0.52s-0.936,0.606-1.25,1.062c-0.314,0.457-0.471,1.031-0.471,1.724
			c0,1.353,0.424,2.289,1.273,2.809C53.836,34.042,54.983,34.302,56.429,34.302z"/>
		<path fill="#FFFFFF" d="M91.096,37.559c-1.101,0.283-2.531,0.575-4.291,0.874c-1.761,0.298-3.694,0.448-5.8,0.448
			c-1.98,0-3.639-0.283-4.975-0.85s-2.404-1.353-3.206-2.36c-0.802-1.007-1.376-2.211-1.722-3.611
			c-0.346-1.399-0.519-2.934-0.519-4.603v-13.83h5.706v12.934c0,2.644,0.385,4.531,1.155,5.664c0.77,1.133,2.114,1.699,4.032,1.699
			c0.691,0,1.422-0.03,2.193-0.094c0.77-0.063,1.344-0.142,1.721-0.236V13.627h5.706V37.559z"/>
		<path fill="#FFFFFF" d="M96.198,7.112l5.705-0.944v7.458h8.771v4.768h-8.771v10.054c0,1.983,0.314,3.399,0.943,4.249
			s1.698,1.274,3.207,1.274c1.037,0,1.957-0.11,2.758-0.331c0.801-0.22,1.438-0.425,1.91-0.613l0.943,4.531
			c-0.66,0.283-1.525,0.575-2.594,0.874c-1.069,0.298-2.327,0.448-3.772,0.448c-1.761,0-3.23-0.236-4.409-0.708
			c-1.179-0.473-2.114-1.157-2.806-2.054s-1.179-1.982-1.462-3.257c-0.283-1.274-0.424-2.729-0.424-4.366V7.112z"/>
		<path fill="#FFFFFF" d="M136.398,25.947c0,1.952-0.283,3.729-0.848,5.334c-0.566,1.604-1.367,2.974-2.406,4.106
			c-1.037,1.133-2.287,2.014-3.748,2.644c-1.461,0.629-3.072,0.943-4.834,0.943c-1.76,0-3.363-0.314-4.81-0.943
			c-1.446-0.63-2.688-1.511-3.725-2.644c-1.038-1.133-1.848-2.502-2.429-4.106c-0.582-1.605-0.873-3.383-0.873-5.334
			c0-1.951,0.291-3.721,0.873-5.31c0.581-1.589,1.398-2.95,2.452-4.083c1.053-1.133,2.302-2.006,3.749-2.62
			c1.446-0.614,3.034-0.921,4.762-0.921s3.324,0.307,4.787,0.921c1.461,0.613,2.711,1.487,3.748,2.62
			c1.037,1.133,1.848,2.495,2.43,4.083C136.107,22.226,136.398,23.996,136.398,25.947z M130.552,25.947
			c0-2.455-0.527-4.397-1.58-5.83c-1.055-1.432-2.523-2.147-4.41-2.147c-1.885,0-3.355,0.716-4.408,2.147
			c-1.054,1.433-1.58,3.375-1.58,5.83c0,2.486,0.526,4.454,1.58,5.901c1.053,1.447,2.523,2.171,4.408,2.171
			c1.887,0,3.355-0.724,4.41-2.171C130.025,30.4,130.552,28.433,130.552,25.947z"/>
		<path fill="#FFFFFF" d="M154.26,25.333c0-2.58-0.323-4.444-0.966-5.594c-0.646-1.148-1.848-1.723-3.607-1.723
			c-0.63,0-1.32,0.047-2.076,0.142c-0.754,0.095-1.32,0.173-1.697,0.236v19.92h-5.705V14.429c1.1-0.314,2.538-0.614,4.314-0.897
			c1.775-0.283,3.654-0.425,5.635-0.425c1.697,0,3.089,0.221,4.174,0.661c1.084,0.44,1.987,1.022,2.711,1.746
			c0.346-0.251,0.785-0.519,1.32-0.802c0.534-0.283,1.132-0.543,1.792-0.779c0.66-0.236,1.359-0.433,2.099-0.59
			c0.738-0.157,1.485-0.236,2.24-0.236c1.916,0,3.496,0.276,4.738,0.826c1.242,0.551,2.217,1.321,2.924,2.313
			c0.707,0.992,1.194,2.188,1.462,3.588c0.267,1.4,0.401,2.935,0.401,4.603v13.878h-5.707V25.333c0-2.58-0.314-4.444-0.942-5.594
			c-0.63-1.148-1.839-1.723-3.631-1.723c-0.912,0-1.776,0.149-2.594,0.448c-0.817,0.3-1.431,0.59-1.839,0.874
			c0.251,0.787,0.424,1.621,0.519,2.501c0.095,0.882,0.142,1.826,0.142,2.833v13.642h-5.706V25.333z"/>
		<path fill="#FFFFFF" d="M187.527,13.013c1.887,0,3.473,0.236,4.763,0.708c1.288,0.473,2.317,1.133,3.089,1.983
			c0.77,0.85,1.32,1.881,1.65,3.092c0.33,1.212,0.495,2.542,0.495,3.989v14.964c-0.88,0.188-2.209,0.417-3.985,0.685
			c-1.775,0.267-3.779,0.4-6.012,0.4c-1.479,0-2.829-0.142-4.055-0.425c-1.227-0.283-2.271-0.738-3.137-1.368
			s-1.541-1.447-2.027-2.455c-0.488-1.007-0.73-2.249-0.73-3.729c0-1.417,0.274-2.612,0.824-3.588
			c0.551-0.975,1.297-1.771,2.24-2.384c0.943-0.614,2.035-1.054,3.277-1.322c1.242-0.267,2.539-0.401,3.891-0.401
			c0.629,0,1.289,0.04,1.98,0.118c0.691,0.079,1.43,0.212,2.217,0.401v-0.944c0-0.661-0.08-1.29-0.236-1.889
			c-0.158-0.597-0.433-1.125-0.825-1.581c-0.394-0.456-0.912-0.81-1.556-1.063c-0.646-0.251-1.455-0.377-2.43-0.377
			c-1.32,0-2.53,0.094-3.631,0.283c-1.1,0.188-1.996,0.409-2.688,0.661l-0.707-4.626c0.723-0.251,1.775-0.503,3.159-0.755
			C184.477,13.139,185.955,13.013,187.527,13.013z M187.999,34.302c1.761,0,3.097-0.095,4.009-0.283v-6.325
			c-0.315-0.095-0.771-0.188-1.368-0.283c-0.598-0.095-1.258-0.142-1.98-0.142c-0.63,0-1.267,0.047-1.909,0.142
			c-0.646,0.095-1.227,0.268-1.746,0.52c-0.518,0.252-0.936,0.606-1.249,1.062c-0.314,0.457-0.472,1.031-0.472,1.724
			c0,1.353,0.425,2.289,1.273,2.809C185.405,34.042,186.552,34.302,187.999,34.302z"/>
		<path fill="#FFFFFF" d="M202.153,7.112l5.706-0.944v7.458h8.771v4.768h-8.771v10.054c0,1.983,0.313,3.399,0.943,4.249
			c0.628,0.85,1.697,1.274,3.206,1.274c1.037,0,1.957-0.11,2.759-0.331c0.801-0.22,1.438-0.425,1.91-0.613l0.942,4.531
			c-0.66,0.283-1.524,0.575-2.593,0.874c-1.07,0.298-2.328,0.448-3.773,0.448c-1.761,0-3.23-0.236-4.408-0.708
			c-1.18-0.473-2.115-1.157-2.807-2.054s-1.179-1.982-1.461-3.257c-0.283-1.274-0.425-2.729-0.425-4.366V7.112z"/>
		<path fill="#FFFFFF" d="M228.254,13.013c1.886,0,3.474,0.236,4.763,0.708c1.289,0.473,2.318,1.133,3.089,1.983
			s1.32,1.881,1.65,3.092c0.33,1.212,0.495,2.542,0.495,3.989v14.964c-0.881,0.188-2.209,0.417-3.984,0.685
			c-1.777,0.267-3.781,0.4-6.013,0.4c-1.478,0-2.829-0.142-4.056-0.425c-1.226-0.283-2.271-0.738-3.135-1.368
			c-0.865-0.63-1.541-1.447-2.028-2.455c-0.487-1.007-0.731-2.249-0.731-3.729c0-1.417,0.275-2.612,0.826-3.588
			c0.549-0.975,1.297-1.771,2.239-2.384c0.943-0.614,2.035-1.054,3.277-1.322c1.241-0.267,2.538-0.401,3.891-0.401
			c0.628,0,1.288,0.04,1.98,0.118c0.69,0.079,1.431,0.212,2.216,0.401v-0.944c0-0.661-0.078-1.29-0.235-1.889
			c-0.157-0.597-0.433-1.125-0.825-1.581c-0.394-0.456-0.912-0.81-1.557-1.063c-0.645-0.251-1.454-0.377-2.428-0.377
			c-1.32,0-2.531,0.094-3.631,0.283c-1.102,0.188-1.997,0.409-2.688,0.661l-0.707-4.626c0.723-0.251,1.775-0.503,3.159-0.755
			C225.205,13.139,226.682,13.013,228.254,13.013z M228.726,34.302c1.76,0,3.096-0.095,4.008-0.283v-6.325
			c-0.314-0.095-0.771-0.188-1.367-0.283c-0.598-0.095-1.258-0.142-1.98-0.142c-0.629,0-1.266,0.047-1.91,0.142
			s-1.226,0.268-1.744,0.52c-0.52,0.252-0.936,0.606-1.25,1.062c-0.314,0.457-0.472,1.031-0.472,1.724
			c0,1.353,0.425,2.289,1.273,2.809C226.132,34.042,227.28,34.302,228.726,34.302z"/>
	</g>
</g>
<g id="Composite_Path">
	<g>
		<path fill="#FFFFFF" d="M40.521,0L14.219,0.001l19.898,34.298c0,0,2.531-0.211,6.405-1.107L40.521,0z"/>
	</g>
</g>
<g id="INDUSTRIAL_CONSULTING">
	<g>
		<path fill="#FFFFFF" d="M0.311,47.345h1.854v10.298H0.311V47.345z"/>
		<path fill="#FFFFFF" d="M14.63,57.643c-0.333-0.564-0.706-1.171-1.118-1.82c-0.413-0.648-0.838-1.303-1.28-1.961
			c-0.441-0.659-0.89-1.298-1.346-1.918c-0.456-0.618-0.89-1.176-1.302-1.671v7.37H7.758V47.345h1.516
			c0.392,0.416,0.814,0.909,1.265,1.479c0.452,0.569,0.905,1.161,1.361,1.775c0.457,0.614,0.898,1.231,1.325,1.851
			s0.807,1.196,1.14,1.731v-6.836h1.839v10.298H14.63z"/>
		<path fill="#FFFFFF" d="M30.3,52.486c0,0.892-0.137,1.667-0.412,2.325c-0.275,0.659-0.665,1.209-1.17,1.649
			c-0.505,0.441-1.113,0.769-1.824,0.981c-0.711,0.213-1.498,0.319-2.361,0.319c-0.412,0-0.878-0.018-1.398-0.052
			c-0.52-0.035-1.015-0.106-1.486-0.216V47.493c0.471-0.109,0.971-0.179,1.501-0.208c0.529-0.029,1-0.045,1.412-0.045
			c0.854,0,1.633,0.102,2.339,0.305s1.312,0.521,1.817,0.951c0.506,0.431,0.896,0.976,1.17,1.635S30.3,51.575,30.3,52.486z
			 M23.502,56.098c0.108,0.01,0.251,0.018,0.427,0.021c0.177,0.006,0.417,0.008,0.721,0.008c1.246,0,2.175-0.319,2.789-0.958
			c0.613-0.64,0.919-1.533,0.919-2.683c0-1.169-0.299-2.065-0.898-2.689s-1.525-0.937-2.781-0.937c-0.549,0-0.941,0.015-1.177,0.045
			V56.098z"/>
		<path fill="#FFFFFF" d="M39.467,57.866c-0.697,0-1.295-0.103-1.796-0.305c-0.5-0.203-0.915-0.488-1.243-0.854
			c-0.329-0.367-0.572-0.798-0.729-1.293c-0.157-0.495-0.235-1.041-0.235-1.635v-6.435h1.869v6.256c0,0.466,0.052,0.864,0.155,1.196
			s0.25,0.602,0.441,0.811c0.192,0.208,0.417,0.361,0.677,0.46c0.26,0.1,0.552,0.148,0.875,0.148s0.618-0.049,0.883-0.148
			c0.266-0.099,0.493-0.252,0.685-0.46c0.191-0.209,0.338-0.479,0.441-0.811c0.104-0.332,0.155-0.73,0.155-1.196v-6.256h1.869v6.435
			c0,0.594-0.081,1.14-0.243,1.635c-0.162,0.495-0.406,0.926-0.735,1.293c-0.328,0.366-0.748,0.651-1.258,0.854
			C40.767,57.764,40.163,57.866,39.467,57.866z"/>
		<path fill="#FFFFFF" d="M51.404,56.246c0.667,0,1.153-0.114,1.457-0.342s0.456-0.55,0.456-0.966c0-0.248-0.052-0.461-0.154-0.64
			c-0.103-0.178-0.25-0.339-0.441-0.482s-0.424-0.277-0.699-0.401s-0.588-0.245-0.942-0.364c-0.353-0.129-0.694-0.27-1.022-0.424
			c-0.329-0.153-0.619-0.344-0.868-0.571c-0.25-0.229-0.452-0.501-0.603-0.817c-0.153-0.317-0.229-0.699-0.229-1.145
			c0-0.931,0.319-1.662,0.957-2.192c0.637-0.529,1.506-0.795,2.604-0.795c0.637,0,1.204,0.072,1.699,0.216s0.885,0.3,1.17,0.468
			l-0.574,1.516c-0.333-0.188-0.699-0.331-1.096-0.431c-0.397-0.099-0.807-0.148-1.229-0.148c-0.5,0-0.89,0.104-1.169,0.313
			c-0.28,0.208-0.419,0.5-0.419,0.876c0,0.229,0.046,0.424,0.14,0.587c0.093,0.164,0.226,0.311,0.397,0.438
			c0.172,0.129,0.373,0.248,0.604,0.357c0.23,0.108,0.483,0.213,0.758,0.312c0.48,0.179,0.91,0.359,1.288,0.543
			c0.377,0.183,0.696,0.4,0.957,0.653c0.26,0.253,0.458,0.55,0.596,0.892c0.137,0.342,0.206,0.756,0.206,1.241
			c0,0.931-0.326,1.651-0.979,2.162c-0.652,0.51-1.606,0.766-2.862,0.766c-0.421,0-0.806-0.028-1.155-0.082
			c-0.348-0.055-0.657-0.122-0.927-0.201s-0.503-0.16-0.699-0.245c-0.196-0.084-0.353-0.16-0.471-0.23l0.544-1.53
			c0.265,0.148,0.623,0.297,1.074,0.446C50.222,56.172,50.767,56.246,51.404,56.246z"/>
		<path fill="#FFFFFF" d="M66.956,47.345v1.619h-3.134v8.679h-1.869v-8.679h-3.134v-1.619H66.956z"/>
		<path fill="#FFFFFF" d="M74.071,47.24c1.471,0,2.597,0.272,3.377,0.817c0.781,0.545,1.17,1.377,1.17,2.497
			c0,1.396-0.682,2.343-2.045,2.838c0.187,0.229,0.398,0.506,0.633,0.832c0.235,0.327,0.476,0.682,0.721,1.063
			c0.245,0.382,0.48,0.773,0.707,1.174c0.226,0.401,0.426,0.796,0.603,1.182h-2.075c-0.186-0.356-0.387-0.716-0.604-1.077
			c-0.215-0.361-0.433-0.713-0.654-1.055c-0.22-0.342-0.439-0.664-0.655-0.967c-0.215-0.302-0.417-0.571-0.603-0.81
			c-0.137,0.01-0.254,0.015-0.353,0.015c-0.098,0-0.191,0-0.279,0h-0.897v3.894h-1.854V47.493c0.451-0.099,0.932-0.166,1.441-0.2
			C73.212,47.258,73.668,47.24,74.071,47.24z M74.204,48.86c-0.393,0-0.755,0.015-1.089,0.045v3.328h0.809
			c0.451,0,0.849-0.024,1.192-0.074c0.343-0.049,0.63-0.139,0.861-0.268c0.23-0.128,0.404-0.302,0.522-0.52s0.177-0.496,0.177-0.833
			c0-0.316-0.059-0.584-0.177-0.802s-0.287-0.392-0.508-0.521s-0.483-0.22-0.787-0.274S74.566,48.86,74.204,48.86z"/>
		<path fill="#FFFFFF" d="M83.664,47.345h1.854v10.298h-1.854V47.345z"/>
		<path fill="#FFFFFF" d="M97.894,57.643c-0.137-0.406-0.28-0.807-0.428-1.203c-0.147-0.396-0.29-0.803-0.427-1.219h-4.307
			c-0.138,0.416-0.278,0.824-0.421,1.226c-0.142,0.401-0.283,0.801-0.42,1.196h-1.928c0.382-1.1,0.746-2.115,1.088-3.046
			c0.344-0.932,0.679-1.813,1.007-2.646c0.329-0.832,0.654-1.625,0.978-2.378c0.324-0.752,0.657-1.495,1-2.229h1.77
			c0.343,0.733,0.676,1.477,1,2.229c0.323,0.753,0.649,1.546,0.978,2.378s0.667,1.714,1.016,2.646
			c0.347,0.931,0.713,1.946,1.096,3.046H97.894z M94.885,49.336c-0.226,0.525-0.483,1.164-0.773,1.917
			c-0.289,0.753-0.59,1.57-0.904,2.452h3.355c-0.315-0.882-0.619-1.704-0.913-2.467S95.101,49.841,94.885,49.336z"/>
		<path fill="#FFFFFF" d="M110.455,56.023v1.619h-6.445V47.345h1.854v8.679H110.455z"/>
		<path fill="#FFFFFF" d="M125.915,57.866c-0.766,0-1.452-0.119-2.061-0.357c-0.609-0.237-1.124-0.587-1.546-1.048
			c-0.421-0.46-0.746-1.022-0.97-1.687c-0.227-0.663-0.34-1.426-0.34-2.288s0.131-1.625,0.391-2.289
			c0.26-0.663,0.615-1.226,1.067-1.687c0.45-0.46,0.979-0.81,1.588-1.047c0.608-0.238,1.261-0.357,1.957-0.357
			c0.422,0,0.806,0.032,1.148,0.097c0.344,0.064,0.643,0.137,0.898,0.216c0.254,0.079,0.464,0.163,0.631,0.253
			c0.169,0.089,0.285,0.153,0.354,0.192l-0.545,1.531c-0.235-0.148-0.572-0.29-1.008-0.424c-0.437-0.134-0.91-0.2-1.42-0.2
			c-0.44,0-0.854,0.076-1.236,0.23c-0.382,0.153-0.714,0.384-0.993,0.69c-0.279,0.308-0.498,0.693-0.654,1.159
			s-0.236,1.006-0.236,1.62c0,0.545,0.063,1.045,0.185,1.501c0.122,0.455,0.311,0.85,0.567,1.181c0.255,0.332,0.578,0.59,0.97,0.773
			c0.393,0.184,0.864,0.274,1.412,0.274c0.658,0,1.192-0.066,1.605-0.2c0.412-0.134,0.729-0.261,0.956-0.379l0.499,1.53
			c-0.116,0.079-0.276,0.158-0.478,0.238c-0.201,0.079-0.439,0.155-0.714,0.229c-0.273,0.075-0.584,0.134-0.926,0.179
			C126.673,57.844,126.306,57.866,125.915,57.866z"/>
		<path fill="#FFFFFF" d="M143.26,52.486c0,0.882-0.13,1.659-0.389,2.333c-0.261,0.674-0.614,1.236-1.06,1.687
			c-0.447,0.451-0.97,0.79-1.567,1.019c-0.599,0.228-1.235,0.342-1.913,0.342c-0.677,0-1.316-0.114-1.92-0.342
			c-0.603-0.229-1.128-0.567-1.575-1.019c-0.446-0.45-0.801-1.013-1.066-1.687c-0.265-0.674-0.396-1.451-0.396-2.333
			s0.132-1.657,0.396-2.326c0.266-0.668,0.625-1.23,1.082-1.687c0.455-0.455,0.983-0.797,1.582-1.025
			c0.599-0.228,1.23-0.342,1.897-0.342c0.668,0,1.3,0.114,1.899,0.342c0.598,0.229,1.119,0.57,1.565,1.025
			c0.447,0.456,0.802,1.019,1.067,1.687C143.128,50.829,143.26,51.604,143.26,52.486z M135.301,52.486
			c0,0.564,0.068,1.077,0.205,1.538c0.138,0.461,0.337,0.852,0.597,1.174s0.575,0.572,0.949,0.751
			c0.372,0.178,0.794,0.267,1.266,0.267c0.46,0,0.877-0.089,1.251-0.267c0.371-0.179,0.689-0.429,0.948-0.751
			s0.459-0.713,0.596-1.174c0.138-0.461,0.205-0.974,0.205-1.538s-0.067-1.077-0.205-1.538c-0.137-0.461-0.337-0.852-0.596-1.174
			s-0.577-0.572-0.948-0.751c-0.374-0.178-0.791-0.268-1.251-0.268c-0.472,0-0.894,0.09-1.266,0.268
			c-0.374,0.179-0.689,0.432-0.949,0.758c-0.26,0.327-0.459,0.719-0.597,1.175C135.37,51.411,135.301,51.922,135.301,52.486z"/>
		<path fill="#FFFFFF" d="M155.042,57.643c-0.333-0.564-0.706-1.171-1.118-1.82c-0.411-0.648-0.839-1.303-1.28-1.961
			c-0.441-0.659-0.889-1.298-1.346-1.918c-0.457-0.618-0.89-1.176-1.303-1.671v7.37h-1.824V47.345h1.516
			c0.392,0.416,0.814,0.909,1.265,1.479c0.451,0.569,0.905,1.161,1.362,1.775c0.456,0.614,0.897,1.231,1.323,1.851
			c0.428,0.619,0.808,1.196,1.14,1.731v-6.836h1.841v10.298H155.042z"/>
		<path fill="#FFFFFF" d="M164.532,56.246c0.668,0,1.154-0.114,1.457-0.342c0.305-0.228,0.456-0.55,0.456-0.966
			c0-0.248-0.051-0.461-0.154-0.64c-0.104-0.178-0.251-0.339-0.441-0.482s-0.426-0.277-0.699-0.401
			c-0.275-0.124-0.588-0.245-0.942-0.364c-0.352-0.129-0.693-0.27-1.021-0.424c-0.329-0.153-0.618-0.344-0.868-0.571
			c-0.251-0.229-0.452-0.501-0.604-0.817c-0.152-0.317-0.229-0.699-0.229-1.145c0-0.931,0.318-1.662,0.957-2.192
			c0.637-0.529,1.506-0.795,2.604-0.795c0.64,0,1.204,0.072,1.699,0.216c0.496,0.144,0.887,0.3,1.171,0.468l-0.574,1.516
			c-0.333-0.188-0.699-0.331-1.096-0.431c-0.397-0.099-0.808-0.148-1.229-0.148c-0.5,0-0.892,0.104-1.17,0.313
			c-0.28,0.208-0.42,0.5-0.42,0.876c0,0.229,0.046,0.424,0.14,0.587c0.093,0.164,0.227,0.311,0.398,0.438
			c0.17,0.129,0.371,0.248,0.603,0.357c0.229,0.108,0.483,0.213,0.758,0.312c0.48,0.179,0.91,0.359,1.288,0.543
			c0.378,0.183,0.695,0.4,0.956,0.653c0.26,0.253,0.459,0.55,0.596,0.892c0.138,0.342,0.206,0.756,0.206,1.241
			c0,0.931-0.327,1.651-0.979,2.162c-0.653,0.51-1.606,0.766-2.862,0.766c-0.423,0-0.806-0.028-1.154-0.082
			c-0.349-0.055-0.658-0.122-0.927-0.201c-0.271-0.079-0.503-0.16-0.699-0.245c-0.197-0.084-0.354-0.16-0.471-0.23l0.545-1.53
			c0.264,0.148,0.621,0.297,1.072,0.446C163.35,56.172,163.895,56.246,164.532,56.246z"/>
		<path fill="#FFFFFF" d="M176.906,57.866c-0.697,0-1.296-0.103-1.796-0.305c-0.5-0.203-0.914-0.488-1.244-0.854
			c-0.327-0.367-0.57-0.798-0.728-1.293c-0.156-0.495-0.236-1.041-0.236-1.635v-6.435h1.87v6.256c0,0.466,0.051,0.864,0.154,1.196
			s0.25,0.602,0.441,0.811c0.19,0.208,0.417,0.361,0.677,0.46c0.259,0.1,0.552,0.148,0.874,0.148c0.325,0,0.619-0.049,0.885-0.148
			c0.264-0.099,0.492-0.252,0.685-0.46c0.191-0.209,0.338-0.479,0.44-0.811c0.104-0.332,0.155-0.73,0.155-1.196v-6.256h1.868v6.435
			c0,0.594-0.082,1.14-0.243,1.635s-0.407,0.926-0.735,1.293c-0.329,0.366-0.748,0.651-1.258,0.854
			C178.205,57.764,177.601,57.866,176.906,57.866z"/>
		<path fill="#FFFFFF" d="M192.815,56.023v1.619h-6.445V47.345h1.855v8.679H192.815z"/>
		<path fill="#FFFFFF" d="M204.394,47.345v1.619h-3.135v8.679h-1.869v-8.679h-3.133v-1.619H204.394z"/>
		<path fill="#FFFFFF" d="M208.699,47.345h1.854v10.298h-1.854V47.345z"/>
		<path fill="#FFFFFF" d="M223.019,57.643c-0.336-0.564-0.708-1.171-1.12-1.82c-0.412-0.648-0.839-1.303-1.279-1.961
			c-0.441-0.659-0.891-1.298-1.347-1.918c-0.456-0.618-0.891-1.176-1.302-1.671v7.37h-1.825V47.345h1.516
			c0.393,0.416,0.813,0.909,1.266,1.479c0.451,0.569,0.905,1.161,1.361,1.775c0.455,0.614,0.896,1.231,1.324,1.851
			c0.426,0.619,0.807,1.196,1.14,1.731v-6.836h1.84v10.298H223.019z"/>
		<path fill="#FFFFFF" d="M234.803,48.756c-1.05,0-1.853,0.33-2.406,0.988c-0.554,0.659-0.831,1.573-0.831,2.742
			c0,0.555,0.066,1.063,0.198,1.523c0.134,0.46,0.33,0.854,0.589,1.181c0.261,0.327,0.584,0.583,0.972,0.766
			c0.387,0.184,0.84,0.275,1.361,0.275c0.322,0,0.603-0.013,0.838-0.037c0.236-0.025,0.422-0.058,0.56-0.097v-3.7h1.854v4.948
			c-0.255,0.099-0.688,0.208-1.295,0.327c-0.609,0.118-1.31,0.178-2.104,0.178c-0.736,0-1.408-0.118-2.016-0.356
			c-0.608-0.237-1.126-0.584-1.552-1.04c-0.429-0.456-0.759-1.016-0.993-1.68c-0.236-0.663-0.354-1.426-0.354-2.288
			s0.131-1.625,0.392-2.289c0.259-0.663,0.615-1.226,1.065-1.687c0.452-0.46,0.981-0.81,1.59-1.047
			c0.608-0.238,1.255-0.357,1.942-0.357c0.471,0,0.89,0.032,1.258,0.097c0.367,0.064,0.684,0.137,0.948,0.216
			c0.266,0.079,0.483,0.163,0.654,0.253c0.173,0.089,0.293,0.153,0.361,0.192l-0.559,1.531c-0.294-0.179-0.66-0.329-1.097-0.453
			S235.284,48.756,234.803,48.756z"/>
	</g>
</g>
<g id="Composite_Path_1_">
	<g>
		<path fill="#FFFFFF" d="M9.083,5.965l-8.771,9.563L0,15.526v12.475l12.737-15.306L9.083,5.965z M16.94,19.12L0.21,38.702h27.737
			L16.94,19.12z"/>
	</g>
</g>
</svg>
